\relax 
\providecommand\hyper@newdestlabel[2]{}
\@writefile{toc}{\contentsline {section}{\numberline {1}Archivos de configuraci\IeC {\'o}n}{2}{section.1}}
\@writefile{toc}{\contentsline {section}{\numberline {2}Particiones Linux}{2}{section.2}}
\@writefile{toc}{\contentsline {subsection}{\numberline {2.1}Particiones Device}{2}{subsection.2.1}}
\@writefile{toc}{\contentsline {subsubsection}{\numberline {2.1.1}SCSI}{3}{subsubsection.2.1.1}}
\@writefile{toc}{\contentsline {subsubsection}{\numberline {2.1.2}SAS}{3}{subsubsection.2.1.2}}
\@setckpt{src/chap1/set1}{
\setcounter{page}{4}
\setcounter{equation}{0}
\setcounter{enumi}{0}
\setcounter{enumii}{0}
\setcounter{enumiii}{0}
\setcounter{enumiv}{0}
\setcounter{footnote}{0}
\setcounter{mpfootnote}{0}
\setcounter{part}{0}
\setcounter{section}{2}
\setcounter{subsection}{1}
\setcounter{subsubsection}{2}
\setcounter{paragraph}{0}
\setcounter{subparagraph}{0}
\setcounter{figure}{0}
\setcounter{table}{0}
\setcounter{parentequation}{0}
\setcounter{Item}{0}
\setcounter{Hfootnote}{0}
\setcounter{bookmark@seq@number}{5}
\setcounter{ContinuedFloat}{0}
\setcounter{lstnumber}{1}
\setcounter{section@level}{3}
\setcounter{lstlisting}{0}
}
