\relax 
\providecommand\hyper@newdestlabel[2]{}
\@writefile{toc}{\contentsline {section}{\numberline {3}Una Introducci\IeC {\'o}n al BASH}{4}{section.3}}
\@writefile{toc}{\contentsline {subsection}{\numberline {3.1}Control De tareas}{4}{subsection.3.1}}
\@writefile{toc}{\contentsline {subsection}{\numberline {3.2}Variables de entorno}{4}{subsection.3.2}}
\@writefile{toc}{\contentsline {subsubsection}{\numberline {3.2.1}Impresi\IeC {\'o}n de las variables de entorno}{4}{subsubsection.3.2.1}}
\@writefile{toc}{\contentsline {subsubsection}{\numberline {3.2.2}Configuraci\IeC {\'o}n de las variables de entorno}{4}{subsubsection.3.2.2}}
\@writefile{toc}{\contentsline {subsection}{\numberline {3.3}Pipes}{5}{subsection.3.3}}
\@writefile{toc}{\contentsline {subsection}{\numberline {3.4}Redirecci\IeC {\'o}n}{5}{subsection.3.4}}
\@writefile{toc}{\contentsline {subsection}{\numberline {3.5}Atajos de la l\IeC {\'\i }nea de comandos BASH}{5}{subsection.3.5}}
\@writefile{toc}{\contentsline {subsubsection}{\numberline {3.5.1}Expresi\IeC {\'o}n del nombre de archivo}{6}{subsubsection.3.5.1}}
\@writefile{toc}{\contentsline {subsubsection}{\numberline {3.5.2}Variables de entorno como par\IeC {\'a}metros}{6}{subsubsection.3.5.2}}
\@writefile{toc}{\contentsline {subsubsection}{\numberline {3.5.3}Uso de varios comandos}{7}{subsubsection.3.5.3}}
\@writefile{toc}{\contentsline {subsubsection}{\numberline {3.5.4}Comillas invertidas ({\tt  \char `\`{}})}{7}{subsubsection.3.5.4}}
\@writefile{toc}{\contentsline {section}{\numberline {4}HERRAMIENTAS DE DOCUMENTACI\IeC {\'O}N}{7}{section.4}}
\@writefile{toc}{\contentsline {subsection}{\numberline {4.1}man (abreviatura de manual)}{7}{subsection.4.1}}
\@writefile{toc}{\contentsline {subsection}{\numberline {4.2}info (texinfo)}{8}{subsection.4.2}}
\@setckpt{src/chap6/set6}{
\setcounter{page}{9}
\setcounter{equation}{0}
\setcounter{enumi}{0}
\setcounter{enumii}{0}
\setcounter{enumiii}{0}
\setcounter{enumiv}{0}
\setcounter{footnote}{0}
\setcounter{mpfootnote}{0}
\setcounter{part}{0}
\setcounter{section}{4}
\setcounter{subsection}{2}
\setcounter{subsubsection}{0}
\setcounter{paragraph}{0}
\setcounter{subparagraph}{0}
\setcounter{figure}{0}
\setcounter{table}{0}
\setcounter{parentequation}{0}
\setcounter{Item}{0}
\setcounter{Hfootnote}{0}
\setcounter{bookmark@seq@number}{20}
\setcounter{ContinuedFloat}{0}
\setcounter{lstnumber}{2}
\setcounter{section@level}{2}
\setcounter{lstlisting}{0}
}
